25.Sep.2013 23:51:32    |    Initializing and reading data...
25.Sep.2013 23:51:32    |    XMLtoData(typ="coord")
25.Sep.2013 23:51:32    |    XMLtoData (coord) success; NJud=41, NOrase=124
25.Sep.2013 23:51:32    |    XMLtoData(typ="data")
25.Sep.2013 23:51:32    |    XMLtoData (data) success; NFP=62, NA=6
25.Sep.2013 23:51:32    |    XMLtoData(typ="alegeri")
25.Sep.2013 23:51:32    |    XMLtoData (alegeri) success; NVotari=126
25.Sep.2013 23:51:32    |    Data read successfully!
25.Sep.2013 23:51:32    |    Generating text report...
25.Sep.2013 23:51:32    |    Report generation successful!
25.Sep.2013 23:51:33    |    FVotare(y=2012, fct="pCJ", unde="Mures") = -1 !
25.Sep.2013 23:51:33    |    FVotare(y=2012, fct="pCJ", unde="Timis") = -1 !
25.Sep.2013 23:51:33    |    FVotare(y=2012, fct="pCJ", unde="Bihor") = -1 !
25.Sep.2013 23:51:33    |    FVotare(y=2012, fct="pCJ", unde="Iasi") = -1 !
25.Sep.2013 23:51:33    |    FVotare(y=2012, fct="pCJ", unde="Alba") = -1 !
25.Sep.2013 23:51:33    |    FVotare(y=2012, fct="pCJ", unde="Arad") = -1 !
25.Sep.2013 23:51:33    |    FVotare(y=2012, fct="pCJ", unde="Arges") = -1 !
25.Sep.2013 23:51:33    |    FVotare(y=2012, fct="pCJ", unde="Bacau") = -1 !
25.Sep.2013 23:51:33    |    FVotare(y=2012, fct="pCJ", unde="Bistrita-Nasaud") = -1 !
25.Sep.2013 23:51:33    |    FVotare(y=2012, fct="pCJ", unde="Botosani") = -1 !
25.Sep.2013 23:51:33    |    FVotare(y=2012, fct="pCJ", unde="Braila") = -1 !
25.Sep.2013 23:51:33    |    FVotare(y=2012, fct="pCJ", unde="Buzau") = -1 !
25.Sep.2013 23:51:33    |    FVotare(y=2012, fct="pCJ", unde="Caras-Severin") = -1 !
25.Sep.2013 23:51:33    |    FVotare(y=2012, fct="pCJ", unde="Calarasi") = -1 !
25.Sep.2013 23:51:33    |    FVotare(y=2012, fct="pCJ", unde="Constanta") = -1 !
25.Sep.2013 23:51:33    |    FVotare(y=2012, fct="pCJ", unde="Covasna") = -1 !
25.Sep.2013 23:51:33    |    FVotare(y=2012, fct="pCJ", unde="Dambovita") = -1 !
25.Sep.2013 23:51:33    |    FVotare(y=2012, fct="pCJ", unde="Dolj") = -1 !
25.Sep.2013 23:51:33    |    FVotare(y=2012, fct="pCJ", unde="Galati") = -1 !
25.Sep.2013 23:51:33    |    FVotare(y=2012, fct="pCJ", unde="Giurgiu") = -1 !
25.Sep.2013 23:51:33    |    FVotare(y=2012, fct="pCJ", unde="Gorj") = -1 !
25.Sep.2013 23:51:33    |    FVotare(y=2012, fct="pCJ", unde="Harghita") = -1 !
25.Sep.2013 23:51:33    |    FVotare(y=2012, fct="pCJ", unde="Hunedoara") = -1 !
25.Sep.2013 23:51:33    |    FVotare(y=2012, fct="pCJ", unde="Ialomita") = -1 !
25.Sep.2013 23:51:33    |    FVotare(y=2012, fct="pCJ", unde="Maramures") = -1 !
25.Sep.2013 23:51:33    |    FVotare(y=2012, fct="pCJ", unde="Mehedinti") = -1 !
25.Sep.2013 23:51:33    |    FVotare(y=2012, fct="pCJ", unde="Neamt") = -1 !
25.Sep.2013 23:51:33    |    FVotare(y=2012, fct="pCJ", unde="Olt") = -1 !
25.Sep.2013 23:51:33    |    FVotare(y=2012, fct="pCJ", unde="Prahova") = -1 !
25.Sep.2013 23:51:33    |    FVotare(y=2012, fct="pCJ", unde="Satu Mare") = -1 !
25.Sep.2013 23:51:33    |    FVotare(y=2012, fct="pCJ", unde="Salaj") = -1 !
25.Sep.2013 23:51:33    |    FVotare(y=2012, fct="pCJ", unde="Suceava") = -1 !
25.Sep.2013 23:51:33    |    FVotare(y=2012, fct="pCJ", unde="Teleorman") = -1 !
25.Sep.2013 23:51:33    |    FVotare(y=2012, fct="pCJ", unde="Tulcea") = -1 !
25.Sep.2013 23:51:33    |    FVotare(y=2012, fct="pCJ", unde="Vaslui") = -1 !
25.Sep.2013 23:51:33    |    FVotare(y=2012, fct="pCJ", unde="Valcea") = -1 !
25.Sep.2013 23:51:33    |    FVotare(y=2012, fct="pCJ", unde="Vrancea") = -1 !
25.Sep.2013 23:51:33    |    FVotare(y=2012, fct="pCJ", unde="Ilfov") = -1 !
25.Sep.2013 23:51:33    |    FVotare(y=2012, fct="P", unde="Lugoj, Timis") = -1 !
25.Sep.2013 23:51:33    |    FVotare(y=2012, fct="P", unde="Tg.Frumos, Iasi") = -1 !
25.Sep.2013 23:51:33    |    Am afi?ast 122 primari ?i 3 pre?edin?i CJ pentru 2012
